	gene1	gene2	pvalue	FDR
0	MTOR	RICTOR	0.5078050162871727	1.0
1	CTNNB1	APC	0.1875107315855352	1.0
2	CREBBP	TP53	0.748793128088179	1.0
3	SMARCA4	ARID1A	0.11876419587803339	1.0
4	TTN	ACTN2	0.9797793679102403	1.0
5	CTNNB1	CDH2	0.7685940965825284	1.0
6	MET	HGF	0.2404907959795799	1.0
7	OBSCN	TTN	0.28816370227128896	1.0
8	EGFR	MET	0.0014312026683000723	1.0
9	EGFR	PIK3C2B	0.08446468500100633	1.0
10	NEB	TTN	0.9664604548332645	1.0
11	SPTB	SPTA1	0.06378881724623466	1.0
12	APC	AMER1	0.24311152645073142	1.0
13	RUNX1T1	NCOR1	0.2354257941452921	1.0
14	KDR	HSPG2	0.08148651204242982	1.0
15	KCNA5	ACTN2	0.7289707032735017	1.0
16	AMER1	CTNNB1	0.35384148997672715	1.0
17	FLT4	KDR	0.9133389904142554	1.0
18	RBM10	PRDM14	0.34056177636691004	1.0
19	SMARCA4	ARID2	0.25015110020240156	1.0
20	VEGFC	KDR	0.5756192173579348	1.0
21	MTOR	PREX1	0.06740136877979919	1.0
22	CDKN2A	HUWE1	0.2742980940969148	1.0
23	NCOA1	CREBBP	0.3084989378122278	1.0
24	DMD	DTNA	0.2880132792714231	1.0
25	ATM	NOTCH1	0.7501848606484167	1.0
26	TP53	NCOR2	0.4426732886973387	1.0
27	APC	AMER3	0.0985228875857701	1.0
28	ATM	MDC1	0.010072223396992461	1.0
29	NCOR2	SPEN	0.8127745669087283	1.0
30	NTNG1	LRRC4C	0.6989579976683242	1.0
31	PREX1	RICTOR	0.32857061157656114	1.0
32	PTPRC	CTNNB1	0.01875533749603153	1.0
33	SPTAN1	SPTBN1	0.9535030764868473	1.0
34	CNTN1	PTPRZ1	0.9335460932488249	1.0
35	ARID1B	SMARCA2	0.7613524830611592	1.0
36	SMARCA2	ARID1A	0.8395335205409727	1.0
37	FN1	LPA	0.15955002699096066	1.0
38	LRRK1	LRRK2	0.8181206429169551	1.0
39	MAGEC2	TP53	0.33514556320109395	1.0
40	EGFR	PDGFRA	0.008530583690227599	1.0
41	CREBBP	CTNNB1	0.8339463599418703	1.0
42	LAMA4	TP53	0.4365546530577948	1.0
43	PKP2	MTUS2	0.5283597267804735	1.0
44	DAB1	C1ORF94	0.07339104728193635	1.0
45	SPTA1	SPTBN1	0.7165868850039085	1.0
46	DOCK2	MTUS2	0.9963886283517287	1.0
47	FN1	ITGA4	0.3122638088638612	1.0
48	RBFOX1	C1ORF94	0.206236438177465	1.0
49	COL4A2	COL4A1	0.8719626830733521	1.0
50	DZIP3	ARHGAP32	0.3378855792913563	1.0
51	TP53	MAP1B	0.6624065125718416	1.0
52	MTUS2	ROBO3	0.9173584678230448	1.0
53	PDE4DIP	MTUS2	0.4633189706039612	1.0
54	C1ORF94	ROR2	0.8524849472069113	1.0
55	XIRP1	FLNC	0.8744960883620145	1.0
56	MTUS2	TSHZ3	0.7844582778153457	1.0
57	ZFC3H1	MTUS2	0.8606160860175782	1.0
58	DAB1	ROR2	0.5794642725542484	1.0
59	ROBO1	SLIT2	0.4959821978459546	1.0
60	EGFR	AHNAK	0.0006626888249186975	1.0
61	NEB	SVIL	0.6573943571309356	1.0
62	DYSF	ALMS1	0.32273597968616463	1.0
63	ALK	PTPRZ1	0.9721333239332348	1.0
64	AMER1	AMER3	0.5177114079313527	1.0
65	NEB	DYSF	0.9816544267565396	1.0
66	DYSF	CMYA5	0.5979389120030967	1.0
67	EGFR	LRRK1	0.013694135119620091	1.0
68	DACT1	CTNNB1	0.34745909104307615	1.0
69	FLNC	DYSF	0.8672876338112435	1.0
70	VCAM1	ITGA4	0.4968757153415013	1.0
71	VCAM1	DYNC1H1	0.13274955736973312	1.0
72	KCNA4	ACTN2	0.5863653932863411	1.0
73	VCAM1	MACF1	0.6276790105335566	1.0
74	KDM5C	MGA	0.27942082099570514	1.0
75	ITPR2	TRPC4	0.24229982322544882	1.0
76	KMT2A	HCFC1	0.40180250291308744	1.0
77	VCAM1	UBR4	0.910091381614081	1.0
78	VCAM1	NUP205	0.26344371380836734	1.0
79	MET	PLXNB2	0.11560586046578336	1.0
80	NCOR1	SMARCA4	0.06813975773115341	1.0
81	NRAP	ACTN2	0.6438753787392472	1.0
82	ARID1B	SMARCA4	0.7942218212355722	1.0
83	MAGI2	RAPGEF2	0.6007067598206407	1.0
84	DACH1	SMAD4	0.6019058624782386	1.0
85	HUWE1	TP53	0.261052217388017	1.0
86	MYOM2	DYSF	0.9024089095358448	1.0
87	TNC	COL5A1	0.7118648498157542	1.0
88	COL5A1	MMP2	0.7974851334096078	1.0
89	COL5A1	FN1	0.0984174269491947	1.0
90	PTPRN	PTPRT	0.6986440065313937	1.0
91	RYR1	MYOM2	0.8057025615757389	1.0
92	HIVEP1	CACNA1A	0.5138588772637702	1.0
93	DOCK9	NEB	0.5117562076987691	1.0
94	YLPM1	CACNA1A	0.21584256974474478	1.0
95	TTN	MYOM2	0.7548281166922788	1.0
96	ITGAL	PTPRC	0.8214645889013766	1.0
97	ACTN2	DYSF	0.940223362109268	1.0
98	MYOM2	ACTN2	0.3565939083021561	1.0
99	SPTBN4	PTPRN	0.9798022110365033	1.0
100	TTN	DYSF	0.46548702136143205	1.0
101	PTPRN	MADD	0.6019058624782386	1.0
102	AMER1	KEAP1	0.056753381698100784	1.0
103	NID2	RBP3	0.4662333742932648	1.0
104	ITIH6	KPRP	0.7784263722067761	1.0
105	GPR101	THSD7B	0.1534973810946032	1.0
106	ZFC3H1	CADPS	0.09696273278876402	1.0
107	RBP3	KPRP	0.608697255010577	1.0
108	TFAP2D	KPRP	0.5764951279578273	1.0
109	SPTA1	TSHZ2	0.1267756022003805	1.0
110	BACH2	TSHZ2	0.9625467731531823	1.0
111	TP53	CDKN2A	0.9362304855725337	1.0
112	ZIC1	SMAD4	0.382610606023856	1.0
113	NID2	KPRP	0.5281222210804027	1.0
114	ZFC3H1	MKRN3	0.5648681366557551	1.0
115	DLGAP3	DLG2	0.26344371380836734	1.0
116	PKP2	DSP	0.4766986764828167	1.0
117	DOCK2	TENM4	0.8858766156559967	1.0
118	NOTCH1	PRKDC	0.13975276006982118	1.0
119	UBR5	CTNNB1	0.044356904345054085	1.0
120	NOTCH1	SMARCA4	0.5546671668017217	1.0
121	TBX5	CTNNB1	0.34745909104307615	1.0
122	MYO7B	CDHR2	0.35321211604346153	1.0
123	NOTCH1	FRYL	0.18103444653687	1.0
124	CNTNAP2	CNTN1	0.21010748106943666	1.0
125	NOTCH1	BCL11B	0.32764035134067554	1.0
126	ITGA2	COL1A2	0.8889778348888255	1.0
127	DTNA	UTRN	0.7584217114538219	1.0
128	PTPRC	LEPR	0.6140201973474464	1.0
129	PTPRB	GRIN2B	0.29967652927489374	1.0
130	VAV3	MET	0.5014945272694976	1.0
131	HSPG2	FLT1	0.7009327709473379	1.0
132	CALCR	GPRASP2	0.631224498463582	1.0
133	TLR4	TNN	0.0594497317780686	1.0
134	TLR4	TNR	0.4350768264112299	1.0
135	FN1	FBN1	0.23126036120272536	1.0
136	PTPN13	APC	0.6984843797694469	1.0
137	CTNNB1	PTPRB	0.07438005598322167	1.0
138	CDH2	PTPRC	0.4896784674840229	1.0
139	CDH2	PTPRB	0.5752359367878553	1.0
140	PTPRB	ALK	0.03601888193096222	1.0
141	FBN3	FN1	0.1751276236273726	1.0
142	LRRK2	TGIF2LX	0.928381863176334	1.0
143	GPRASP1	CALCR	0.8492146688394762	1.0
144	EGFR	PTPRB	0.003105220344509473	1.0
145	MYPN	NEB	0.8698158899855688	1.0
146	LRRK1	FLT4	0.6988141548687046	1.0
147	LRRK2	FAM47B	0.16431903027710723	1.0
148	GRIN2B	PTPRC	0.29035160894949436	1.0
149	FBN2	FN1	0.5828814113549607	1.0
150	VWF	F8	0.2891381558433493	1.0
151	TP53	ATR	0.3084595894531537	1.0
152	PTPRB	MET	0.22880069226478214	1.0
153	LRRK2	DIDO1	0.5821335402643033	1.0
154	FLT3	TNS1	0.3907066700648324	1.0
155	GPRASP1	CHRM2	0.4054939791025726	1.0
156	SPTAN1	SPTB	0.8492146688394753	1.0
157	ANKS1B	ERBB4	0.6214433681433339	1.0
158	LRRK2	XIRP2	0.8109652385983238	1.0
159	TNS1	MET	0.11560586046578336	1.0
160	ANKS1B	EGFR	0.002299364613088772	1.0
161	TNC	TLR4	0.31099948958808155	1.0
162	PTPRC	MET	0.30757024057501425	1.0
163	EGFR	IRS4	0.11311998346572508	1.0
164	FBN2	FBN1	0.0353429239036906	1.0
165	LRRK2	FANCM	0.8325677553015322	1.0
166	ADAMTS7	A2M	0.8492146688394762	1.0
167	ADAMTS12	A2M	0.35830779756974224	1.0
168	ANK3	SCN5A	0.22988095248852045	1.0
169	APC	ASAP1	0.6386765457531417	1.0
170	EPHA7	EPHA3	0.9952706085036742	1.0
171	POLE	LRRK2	0.9446024616102858	1.0
172	PTPRC	EGFR	0.07670943847834834	1.0
173	GPRASP2	CHRM2	0.16490663477224435	1.0
174	PLEKHA7	TNRC6A	0.3244217002214013	1.0
175	FLT1	PTPRB	0.4672813189034372	1.0
176	ATP1A2	DST	0.5295504957967984	1.0
177	ROBO4	ROBO1	0.18103444653687	1.0
178	NOTCH1	LILRB2	0.6656646885597068	1.0
179	GOLGB1	BIRC6	0.23528133233046203	1.0
180	FGD5	PLEC	0.07092574521805464	1.0
181	GRIN2A	NOS1	0.06399842370706858	1.0
182	TRO	ERBB4	0.6491523737607385	1.0
183	VEGFC	FLT4	0.3454496471647486	1.0
184	CTNNB1	AHCTF1	0.8913157665041662	1.0
185	MKI67	AKAP13	0.20146062992568492	1.0
186	PRKDC	LAMC3	0.2887646244591468	1.0
187	PLEC	PAPPA	0.042825302212721045	1.0
188	PLEC	AXDND1	0.7560587152240237	1.0
189	PLEC	CTTNBP2	0.42548929726929163	1.0
190	KIAA1109	CTNNB1	0.0911656475611792	1.0
191	SPTAN1	DZIP3	0.9038241939913854	1.0
192	A2M	MMP2	0.631224498463582	1.0
193	PDCD11	EPRS	0.6088390717332313	1.0
194	PLEC	C2CD3	0.6156368079831682	1.0
195	GABRA1	GABRG2	0.9135330780301267	1.0
196	PLEC	MAGEB4	0.8185966565217017	1.0
197	NCOR1	SRCAP	0.3236970798356168	1.0
198	RIMS1	LRRK1	0.8492146688394753	1.0
199	AHNAK	ACSM5	0.2330317466529308	1.0
200	HUWE1	TRPA1	0.07968359198713329	1.0
201	USP29	TP53	0.5646905685591441	1.0
202	ANK1	OBSCN	0.19239236830187886	1.0
203	CTNNB1	LRP2	0.3324528941415583	1.0
204	LAMB1	CACNA1A	0.4433362169523595	1.0
205	TP53	NCOA2	0.8506247939531589	1.0
206	PLEC	TRPS1	0.8886434263180808	1.0
207	CTCFL	UNC45B	0.08145879608293963	1.0
208	SMAD4	USP9X	0.28356850952018203	1.0
209	ERBB4	EGFR	0.0025172928131168807	1.0
210	AHNAK	DOCK11	0.03954168428673978	1.0
211	PLEC	DNAH5	0.17605110135649402	1.0
212	PLEC	DNAH3	0.23457321357767483	1.0
213	AHNAK	LRRK2	0.6944922098228999	1.0
214	MKI67	NAV2	0.8181310053575267	1.0
215	ANK2	TP53	0.9706928458517099	1.0
216	FLNC	FLG	0.9970941138537109	1.0
217	TTBK1	HEATR1	0.26808432043075114	1.0
218	PLEC	FANCM	0.17822965064186808	1.0
219	PIK3CG	UTRN	0.7360783493807872	1.0
220	AXDND1	SYNE1	0.05496417276848226	1.0
221	PDCD11	ZC3H13	0.6312244984636128	1.0
222	KDR	MET	0.2063762936776234	1.0
223	PLEC	ATR	0.08339872057469339	1.0
224	GRIA3	GRIA2	0.3236489743246176	1.0
225	EGFR	PRKDC	0.00011036650957906144	1.0
226	PRKDC	SYNE2	0.037677652386939486	1.0
227	HUWE1	SPTB	0.484356381655118	1.0
228	TLR4	EGFR	0.0003711978270639964	1.0
229	DLC1	TNS1	0.2414060954828524	1.0
230	NCOA2	CTNNB1	0.4139988430005143	1.0
231	HDAC9	NCOR1	0.009220490362491694	1.0
232	PLEC	MYO18B	0.8012344842070983	1.0
233	TAF1	RB1	0.5794642725537902	1.0
234	PLEC	ASH1L	0.37883460288048226	1.0
235	PRKDC	NRXN1	0.7578190554872799	1.0
236	PCDHB5	DGKB	0.5617172144298725	1.0
237	CTNNA2	CTNNB1	0.09619994094840725	1.0
238	NOVA1	GABRG2	0.49248970856253926	1.0
239	RAPGEF2	MAGI1	0.6312244984636128	1.0
240	DYNC1H1	NF1	0.9039867285466612	1.0
241	C1ORF94	RIMS1	0.07339104728193635	1.0
242	GRIN2A	LRP1	0.28513009184507254	1.0
243	PLEC	NCAPD3	0.03718229528777453	1.0
244	PRG4	MAP1B	0.48032079492999724	1.0
245	PLEC	OR4K17	0.6156368079831682	1.0
246	BCLAF1	RP1	0.7499614516503078	1.0
247	ITGA4	FLNA	0.46623337429326095	1.0
248	PLEC	MXRA5	0.9214359131055527	1.0
249	CTNNB1	FLT1	0.2902464986382543	1.0
250	CTNND2	LRRC7	0.38041710366596587	1.0
251	FN1	EGFR	0.12050019757654559	1.0
252	LAMA5	LAMC1	0.7202547497107258	1.0
253	AHCTF1	NUP205	0.9886543067658845	1.0
254	PLEC	AHCTF1	0.6943960128069837	1.0
255	CTNNB1	CTNNA3	0.631224498463582	1.0
256	KDR	ITGA2	0.8744960883620139	1.0
257	TIAM2	PRKDC	0.07438005598322148	1.0
258	ROBO2	ROBO1	0.7004848593799698	1.0
259	TPR	ADCY10	0.9808352598897776	1.0
260	MADD	PTPRB	0.5725357693737254	1.0
261	SPTAN1	PCDH19	0.6088390717332313	1.0
262	HGF	FN1	0.05839003336037945	1.0
263	NCOR1	NCOR2	0.2205431353496414	1.0
264	PLEC	LAMA5	0.5876991879196773	1.0
265	NES	COL5A2	0.6394342221840135	1.0
266	DACH1	NCOR1	0.9886543067658846	1.0
267	AHCTF1	RANBP2	0.19313335615803995	1.0
268	TTN	RYR1	0.6215313161019025	1.0
269	RANBP2	APC	0.38922509501850644	1.0
270	ITIH5	NOTCH2	0.6130491105975003	1.0
271	LRP1	CACNA1A	0.287550394215597	1.0
272	DYNC1H1	EGFR	0.004197119319317926	1.0
273	ARHGAP32	MEGF10	0.8596224006191958	1.0
274	MAP3K4	TPR	0.5433800974970379	1.0
275	DST	CELSR3	0.8909722358584351	1.0
276	TTN	FN1	0.3670105461422912	1.0
277	CCDC88A	BRAF	0.3075702405750025	1.0
278	TAF1	APC	0.12277213734956853	1.0
279	PSG2	SMAD4	0.3454496471647486	1.0
280	SALL1	DCLK3	0.26554337047789334	1.0
281	MYH3	DYSF	0.5195602074859366	1.0
282	CHD7	CHD8	0.22194669303423184	1.0
283	RAPGEF2	KIF5A	0.5019492914167878	1.0
284	ZNF292	DCLK3	0.6534571189761087	1.0
285	ERBB4	DLG2	0.7508659016438369	1.0
286	APC	NCKAP5	0.33771984868463134	1.0
287	MYH7	MYOM2	0.9083596340542632	1.0
288	ZFC3H1	NINL	0.9656175194896979	1.0
289	PLG	SMAD4	0.6978144045498054	1.0
290	FN1	CDKN2A	0.06619411836357603	1.0
291	MAGI2	DSCAML1	0.7360783493807872	1.0
292	APC	LAMA3	0.07102801564199983	1.0
293	NELL1	CACNA1A	0.3327921510353885	1.0
294	COL5A1	COL6A3	0.9975338712750993	1.0
295	COL5A1	COL6A2	0.9196896077281027	1.0
296	NELL2	CACNA1A	0.6363361872274069	1.0
297	SMAD4	TENM3	0.6705639538851351	1.0
298	DYSF	XIRP2	0.5882186653050082	1.0
299	HECTD1	IGSF1	0.8106100999902714	1.0
300	TAF1	DYSF	0.4572085195356171	1.0
301	APC	ANKRD17	0.8344008868919807	1.0
302	MYH11	APC	0.08854025805201812	1.0
303	SMAD4	FN1	0.3236489743246176	1.0
304	KALRN	CACNA1A	0.1540078681681553	1.0
305	MYOM2	TAF1	0.5794642725537902	1.0
306	APC	MBD5	0.44245974553532863	1.0
307	SPTBN4	CELSR3	0.1298996749555807	1.0
308	RIF1	LAMA4	0.5307127985456915	1.0
309	UNC13A	EPB41L3	0.8673048444204636	1.0
310	NAV2	APC	0.04044259214592903	1.0
311	LRRC7	CNKSR2	0.12701174090469566	1.0
312	SNRNP200	MEGF10	0.13161603041069783	1.0
313	PCSK5	CACNA1A	0.38088794139491045	1.0
314	AKAP13	RANBP2	0.8588467393133703	1.0
315	FLNA	APC	0.34247633407829164	1.0
316	APC	NUP214	0.35477349388847873	1.0
317	PCDHA4	TP53	0.460505355811376	1.0
318	APC	NAV3	0.7454952298888877	1.0
319	ALMS1	MEGF10	0.9594847054919278	1.0
320	PAPPA2	SMAD4	0.4652997708252225	1.0
321	CACNA1A	LTBP1	0.7918329836023803	1.0
322	APC	EXPH5	0.6648018069947829	1.0
323	LAMA5	MUC7	0.3361823458162913	1.0
324	PDZD2	NRXN1	0.3637965277788765	1.0
325	PLCB1	SPTBN1	0.7650859080518444	1.0
326	MYO16	NRXN1	0.6308542434124278	1.0
327	MYOM2	NEB	0.19040391840845097	1.0
328	APC	TPR	0.4660231124850147	1.0
329	EGFR	NTRK2	0.008270706737271675	1.0
330	COL12A1	DYSF	0.4092739160748019	1.0
331	JMJD1C	MYOM2	0.3547734938884631	1.0
332	LRP1	EGFR	0.06618917633383	1.0
333	CHD5	EGFR	0.11311998346572556	1.0
334	RBBP6	PLG	0.6705994724453355	1.0
335	APC	CREBBP	0.11017323619000909	1.0
336	GREB1	SMAD4	0.24758074845441508	1.0
337	TTN	FLNA	0.9324830594619038	1.0
338	SIPA1L1	NRXN1	0.60272868583415	1.0
339	CACNA1A	VWF	0.25555059948931946	1.0
340	GPRASP2	ARHGEF6	0.9909582503726734	1.0
341	SPTBN4	PTPRN2	0.9288156453352946	1.0
342	DST	APC	0.4085029845843307	1.0
343	C1ORF94	AKAP9	0.2354257941452914	1.0
344	TAF1	DOCK9	0.6312244984636128	1.0
345	SPTBN1	APC	0.5794642725537902	1.0
346	COL5A1	COL1A2	0.32273597968616463	1.0
347	CACNA1A	NOTCH1	0.6871413663570779	1.0
348	PDE4DIP	KRAS	0.00039260243764822916	1.0
349	APC	SYNE1	0.4302908186183017	1.0
350	VPS13D	MADD	0.9915526612300688	1.0
351	EGFR	PLCH1	0.008270706737271675	1.0
352	CACNA1A	RIMBP2	0.46602311248521977	1.0
353	LAMA4	APC	0.7379288659868304	1.0
354	HECW1	CACNA1A	0.4602205798788575	1.0
355	APC	MACF1	0.1814379716384025	1.0
356	APC	NEB	0.19040391840845097	1.0
357	DYSF	COL6A3	0.4020989157690247	1.0
358	MYCBP2	TTN	0.9872507225171582	1.0
359	RIF1	PCDHA4	0.4037290751820465	1.0
360	TAF1	RANBP2	0.6224440944898579	1.0
361	HSPG2	CACNA1A	0.20670414405036447	1.0
