	gene1	gene2	pvalue	FDR
0	ERBB2	ERBB3	0.4127039186132239	1.0
1	EP300	TP53	1.7606562568286437e-05	0.3128919333325436
2	MTOR	RICTOR	0.8099548393338911	1.0
3	ERBB2	EGFR	0.16588114577591895	1.0
4	CTNNB1	CDH1	0.07129407872256426	1.0
5	CTNNB1	APC	0.06486092178159017	1.0
6	ERBB3	EGFR	0.7066934867697919	1.0
7	CREBBP	TP53	2.42729737694045e-06	0.07744924593491682
8	SMARCA4	ARID1A	0.9729776422340043	1.0
9	TTN	ACTN2	0.5616860120149612	1.0
10	AR	CTNNB1	0.23215137376091585	1.0
11	EGFR	PLCG1	0.9413095729859342	1.0
12	OBSCN	TTN	0.8183709309081139	1.0
13	DOCK1	ELMO1	0.34694643788144147	1.0
14	FBXW7	NOTCH1	0.644942684938354	1.0
15	TP53BP1	TP53	0.0006032512628088313	1.0
16	ARFGEF2	ARFGEF1	0.9124565838482792	1.0
17	VWF	ADAMTS13	0.6015733933181978	1.0
18	LRRK2	GAK	0.008220039448301016	1.0
19	TTN	OBSL1	0.8208027063265625	1.0
20	ERBB4	ERBB2	0.04264271431962942	1.0
21	EGFR	PIK3C2B	0.8611752817718754	1.0
22	IRS1	PIK3CA	0.31351328526413486	1.0
23	NEB	TTN	0.904028791251853	1.0
24	SMARCA4	PBRM1	0.9665390860900663	1.0
25	SPTB	SPTA1	0.006521800577943363	1.0
26	BCOR	KDM2B	0.9403521202795793	1.0
27	CUL9	TP53	3.0096598831714086e-05	0.4758294713030823
28	CTNND1	PTPRJ	0.5266032172183308	1.0
29	KCNA5	ACTN2	0.10013702130819985	1.0
30	CUL7	TP53	0.006269729034392304	1.0
31	ARFGEF1	KIF21A	0.9872812842632345	1.0
32	DLC1	RASA1	0.3390766201253625	1.0
33	SMARCA4	ARID2	0.8722110126999365	1.0
34	ULK1	MTOR	0.17653216023941787	1.0
35	APC	SCRIB	0.18519554191581616	1.0
36	EGFR	CDH1	0.17906583199980644	1.0
37	ROCK1	RHOA	0.12872412033652122	1.0
38	ATM	NOTCH1	0.5012526755078915	1.0
39	EGFR	CTNND1	0.7382247960541495	1.0
40	TP53	NCOR2	1.30518149697665e-07	0.011597401831135078
41	CFH	C3	0.14466080157976824	1.0
42	SEC16A	NBEAL2	0.567836118476986	1.0
43	ATM	MDC1	0.9269651609309072	1.0
44	HTT	DYNC1H1	0.8054872094972209	1.0
45	NCOR2	SPEN	0.97518032291143	1.0
46	PTPRC	CTNNB1	0.7382247960541495	1.0
47	HTT	ULK1	0.6743045428777383	1.0
48	KCNJ12	SCRIB	0.4431987097302536	1.0
49	SPTAN1	SPTBN1	0.5126854265717595	1.0
50	CTNND2	SCRIB	0.227069896950001	1.0
51	CTNNB1	PTPRJ	0.3131659657938322	1.0
52	ARID2	PBRM1	0.3153758471352132	1.0
53	CTNNB1	PTPRG	0.8619872272470173	1.0
54	NCOA2	AR	0.6987477924009964	1.0
55	CNTN1	PTPRZ1	0.18898616565246015	1.0
56	TTI1	ATM	0.795274803578922	1.0
57	PLCG1	ASAP1	0.6529622716891794	1.0
58	SHANK2	PLCG1	0.9654908539619406	1.0
59	PLCG1	SOS2	0.6529622716891734	1.0
60	RASA1	ERBB2	0.28358273164572484	1.0
61	ARID1B	SMARCA2	0.8006969318296192	1.0
62	SMARCA2	ARID1A	0.724658849774033	1.0
63	ERBB3	ERBB4	0.13492791605531856	1.0
64	FN1	LPA	0.3940168325886606	1.0
65	LRRK1	LRRK2	0.05225890022104082	1.0
66	TP53BP1	ATM	0.4847540426252446	1.0
67	NUAK1	TP53	0.021320919427221766	1.0
68	WDFY3	HTT	0.8941737618556672	1.0
69	TNS3	EGFR	0.49250482441675547	1.0
70	CTCF	HDLBP	0.5457279754424422	1.0
71	PDE3A	ARFGEF1	0.44599005225102417	1.0
72	TP53BP1	MDC1	0.6162505316352748	1.0
73	CREBBP	CTNNB1	0.1884899925995423	1.0
74	LAMA4	TP53	0.0017157508448700763	1.0
75	CREBBP	HTT	0.6805853254490811	1.0
76	SPTA1	SPTBN1	0.0602300968326988	1.0
77	HDAC4	MTUS2	0.563127933807512	1.0
78	STAG1	PDS5B	0.8150625587391214	1.0
79	DOCK2	MTUS2	0.24795015969525283	1.0
80	TANC1	SCRIB	0.8387175646768027	1.0
81	COL4A2	COL4A1	0.6015733933181231	1.0
82	LRRK2	NFATC2	0.17428598170015724	1.0
83	PIK3CA	ERBB3	0.45671197993866597	1.0
84	TP53	MAP1B	2.4201094894988478e-05	0.39324947883224454
85	PDE4DIP	MTUS2	0.4734667375554666	1.0
86	ITGB4	PLEC	0.9987073551445649	1.0
87	XIRP1	FLNC	0.9223959451369985	1.0
88	MTUS2	TSHZ3	0.0034301064341691815	1.0
89	CTCF	ZMYM4	0.5834408692710118	1.0
90	ROBO1	SLIT2	0.07858839612008298	1.0
91	EGFR	AHNAK	0.9713577107058924	1.0
92	NEB	SVIL	0.6361523716332396	1.0
93	DYSF	ALMS1	0.6651519464097856	1.0
94	LRRK2	SEC16A	0.21185204472442948	1.0
95	FLNA	FLNB	0.9258470367309866	1.0
96	NEB	DYSF	0.633608768678166	1.0
97	DYSF	CMYA5	0.40641313092675274	1.0
98	AR	HDAC4	0.09836464531375846	1.0
99	EGFR	LRRK1	0.9990834328863087	1.0
100	FLNC	DYSF	0.3619119116749566	1.0
101	AR	JMJD1C	0.6063789941105349	1.0
102	HDAC4	NCOR1	0.9159438428368089	1.0
103	PLEC	WNK1	0.4135736137290209	1.0
104	TP53	OBSL1	0.0011017400811603822	1.0
105	KCNA4	ACTN2	0.5232533746276957	1.0
106	TRRAP	TTI1	0.796939338652636	1.0
107	PCNT	CDK5RAP2	0.9205952478624059	1.0
108	TP53	SETD1A	0.002676256857433432	1.0
109	TTI1	PRKDC	0.9570276082095268	1.0
110	CEP290	PCNT	0.8175072406261847	1.0
111	NCOR1	SMARCA4	0.100882833665588	1.0
112	HTT	TP53	5.965538714479064e-08	0.00679417858118189
113	CTNNB1	TNIK	0.7032755590999026	1.0
114	CREBBP	AR	0.289304678329153	1.0
115	ARID1B	SMARCA4	0.85199411966369	1.0
116	KMT2B	TP53BP1	0.30874331877582334	1.0
117	PIK3C2B	ERBB2	0.6199576297935591	1.0
118	COL7A1	MIA3	0.28900168423288464	1.0
119	TP53	KMT2E	0.00012921800801143357	1.0
120	HUWE1	TP53	1.4138656286389728e-06	0.05544622638078899
121	MYOM2	DYSF	0.29270834085201736	1.0
122	HTT	CHD3	0.23690668207195517	1.0
123	TNC	COL5A1	0.9319056729182178	1.0
124	COL5A1	FN1	0.8329868457852172	1.0
125	EGFR	AKAP12	0.9413095729859342	1.0
126	RYR1	MYOM2	0.22596643855701395	1.0
127	HIVEP1	CACNA1A	0.9586655327561568	1.0
128	YLPM1	CACNA1A	0.7868525978027366	1.0
129	TTN	MYOM2	0.9907734906567646	1.0
130	ACTN2	DYSF	0.764950671841291	1.0
131	MYOM2	ACTN2	0.20631831316512972	1.0
132	CEP290	ZNF423	0.8978482865805552	1.0
133	MEGF8	CACNA1A	0.9833113166037087	1.0
134	BCL9	CTNNB1	0.23215137376091585	1.0
135	TTN	DYSF	0.5285497536249851	1.0
136	TNS3	CDH1	0.017730490144739403	1.0
137	PIK3CG	PDE3B	0.9513008711478688	1.0
138	PRKDC	AR	0.23240553397541378	1.0
139	ARFGEF2	PDE3A	0.5457279754422903	1.0
140	TP53	MPDZ	0.00024378712391673872	1.0
141	TNRC6A	CNOT1	0.9731987971974135	1.0
142	PBRM1	CHD7	0.7428052227358867	1.0
143	AUTS2	EP300	0.7873070704628711	1.0
144	AR	KMT2D	0.11452915374925313	1.0
145	AR	KMT2A	0.11428045944898475	1.0
146	TTI1	ATR	0.4146415739889781	1.0
147	MKRN3	ANKRD11	0.6066687525298367	1.0
148	SPTA1	TSHZ2	0.032058324545024754	1.0
149	SMAD4	CYFIP2	0.050015834314483795	1.0
150	POGZ	DMXL1	0.8354213552969159	1.0
151	ZNF71	ZNF835	0.6179776786192719	1.0
152	FAM208B	MKRN3	0.05265307442298586	1.0
153	DOCK2	TENM4	0.43546469008892835	1.0
154	CASP8	BRD1	0.8611752817718754	1.0
155	HLA-B	B2M	0.5871870635521192	1.0
156	CTNNB1	SCRIB	0.5232533746276957	1.0
157	TTK	TACC2	0.968814778474625	1.0
158	NOTCH1	PRKDC	0.9549840468665125	1.0
159	UBR5	CTNNB1	0.3695108493425765	1.0
160	NOTCH1	SMARCA4	0.8314171751185336	1.0
161	MYO7B	CDHR2	0.9282583083517042	1.0
162	NOTCH1	FRYL	0.6349656845405249	1.0
163	RICTOR	TTI1	0.9290648247874067	1.0
164	CNTNAP2	CNTN1	0.39049808707923334	1.0
165	RANBP2	ERBB2	0.12314302057909553	1.0
166	AR	NCOR1	0.30375185070467053	1.0
167	NOTCH1	PBRM1	0.8040025561425317	1.0
168	PTPRC	ERBB2	0.6199576297935591	1.0
169	ERBB2	PTPRB	0.1279522467921851	1.0
170	ERBB2	PTPRJ	0.07521108431647423	1.0
171	RASA1	ERBB4	0.03288984530889304	1.0
172	TLR4	TNN	0.08333587912309331	1.0
173	TLR4	TNR	0.07775301693876148	1.0
174	FN1	FBN1	0.9796161533743396	1.0
175	PTPN13	APC	0.749251866157596	1.0
176	ATP2B2	SCRIB	0.1476162783665369	1.0
177	CTNNB1	PTPRB	0.23215137376091516	1.0
178	ERBB2	PLCG1	0.03828269787682457	1.0
179	ERBB2	TLN1	0.027417103441207666	1.0
180	LRRK2	FAM184A	0.4859450172926081	1.0
181	FBN3	FN1	0.874864330411448	1.0
182	IRS1	PTPRD	0.06118672558403934	1.0
183	ERBB3	TNS3	0.8811336277189994	1.0
184	TNS1	AR	0.4872458372429665	1.0
185	EGFR	PTPRB	0.8150625587391214	1.0
186	EGFR	PTPRJ	0.8674501218849281	1.0
187	LRRK1	FLT4	0.512685426437061	1.0
188	ADAMTS13	F8	0.06386758953922189	1.0
189	FBN2	FN1	0.8914437627572258	1.0
190	VWF	F8	0.42306493317881394	1.0
191	TP53	ATR	0.002326368997235809	1.0
192	LRRK2	TTK	0.004482363558349365	1.0
193	LRRK2	DIDO1	0.0016635502217622095	1.0
194	IRS1	EGFR	0.9007883192524331	1.0
195	ERBB2	SUPT6H	0.28358273164572484	1.0
196	KIAA1217	LRRK1	0.18898616565246118	1.0
197	ERBB2	PTPRG	0.7873070704628711	1.0
198	PTPRZ1	ERBB2	0.18898616565246015	1.0
199	SPTAN1	SPTB	0.7288375495391517	1.0
200	RASA1	EGFR	0.7903034103193799	1.0
201	IRS1	LRRK2	0.17428598170015758	1.0
202	ERBB3	PLCG1	0.6581727991952875	1.0
203	ERBB2	TNS3	0.2095795986363539	1.0
204	AR	RASA1	0.11218625903260278	1.0
205	LRRK2	XIRP2	0.24252060745408352	1.0
206	EGFR	TLN1	0.5871870635521192	1.0
207	KMT2A	KMT2B	0.9986750853238687	1.0
208	TNC	TLR4	0.16562198216898202	1.0
209	EGFR	IRS4	0.37720200264181813	1.0
210	ERBB2	IRS1	0.2570130229709411	1.0
211	ERBB2	IRS4	0.31252807062508153	1.0
212	PTPRC	TIE1	0.7113322186152924	1.0
213	RASA1	ERBB3	0.08540086347609413	1.0
214	PLCG1	AR	0.34366566104170443	1.0
215	FBN2	FBN1	0.5675435683338782	1.0
216	LRRK2	FANCM	0.48792159819828634	1.0
217	ADAMTS12	A2M	0.050714272181804465	1.0
218	ANK3	SCN5A	0.7768072134889801	1.0
219	APC	ASAP1	0.3501103408178249	1.0
220	POLE	LRRK2	0.32764325360000396	1.0
221	LRRK1	GAK	0.6199576297935235	1.0
222	PTPRC	EGFR	0.9522527883728421	1.0
223	TIE1	PTPRJ	0.49128892392473966	1.0
224	TIE1	PTPRG	0.9807327354811562	1.0
225	PTPRK	ERBB2	0.045275198712069954	1.0
226	CACNA1D	ACTN2	0.9842751185297035	1.0
227	LRRK2	DAPK1	0.03135285251557013	1.0
228	GOLGB1	FAM208B	0.7889652856233749	1.0
229	MAP2K7	LRRK2	0.09242518868047792	1.0
230	ABCC4	SCRIB	0.16588114577591825	1.0
231	GOLGB1	BIRC6	0.9378829350813053	1.0
232	DAPK1	LRRK1	0.9290648247874067	1.0
233	GRIN2A	NOS1	0.6717769665652552	1.0
234	PLCG1	RYR1	0.8273875560895253	1.0
235	CHD4	LAMC3	0.10349734512447831	1.0
236	EPHA2	CTNNB1	0.11143453120378229	1.0
237	CTNNB1	AHCTF1	0.44599005225097543	1.0
238	AR	CASP8	0.045275198712069954	1.0
239	MKI67	AKAP13	0.9481184265178209	1.0
240	PRKDC	LAMC3	0.851469409010287	1.0
241	PLEC	PAPPA	0.312641499514559	1.0
242	EIF4G1	YLPM1	0.9876306719309141	1.0
243	KIAA1109	CTNNB1	0.46486891226191795	1.0
244	PDCD11	EPRS	0.4092277445434269	1.0
245	PLEC	CDK12	0.12253769261875162	1.0
246	PLEC	C2CD3	0.6477870768820905	1.0
247	ITGB4	FLNA	0.7032755590999026	1.0
248	NCOR1	SRCAP	0.8963410511719644	1.0
249	RIMS1	LRRK1	0.6316358900615333	1.0
250	SRRM2	NUAK1	0.3300956028625762	1.0
251	SMARCA2	FAM184A	0.9384297498064299	1.0
252	TNS3	DLC1	0.7760109624341588	1.0
253	SPEN	PLCG1	0.9731236217685169	1.0
254	HUWE1	TRPA1	0.5011278797098524	1.0
255	SPTBN2	ATAD2	0.5126854265717595	1.0
256	ANK1	OBSCN	0.9018601110289541	1.0
257	RASA1	PLCG1	0.3139672993389043	1.0
258	CTNNB1	LRP2	0.1514572123774217	1.0
259	TP53	NCOA2	3.118176648777028e-05	0.4823632019385308
260	PLEC	TRPS1	0.020739060025345812	1.0
261	PLEC	ITPR1	0.9028059301466066	1.0
262	SMAD4	USP9X	0.03323877048320817	1.0
263	MYH9	SPEF2	0.17706289336544856	1.0
264	AHNAK	CHD4	0.48324576489212645	1.0
265	MYH9	PHF3	0.6559975652046047	1.0
266	ERBB4	EGFR	0.5251939988170703	1.0
267	PLEC	DNAH5	0.49316300662855095	1.0
268	PLEC	DNAH3	0.8514479333925583	1.0
269	AHNAK	LRRK2	0.003927608131095306	1.0
270	EGFR	PTPRG	0.9413095729859342	1.0
271	MKI67	NAV2	0.9378778943775122	1.0
272	ANK2	TP53	6.377239610685258e-08	0.0069567157515719475
273	FLNC	FLG	0.053141715860218736	1.0
274	BOD1L1	DLEC1	0.9017900648372118	1.0
275	PLEC	FANCM	0.8632852148786728	1.0
276	PIK3CG	UTRN	0.027378776061585453	1.0
277	PDCD11	ZC3H13	0.4486988032739453	1.0
278	PLEC	ATR	0.9469099179442841	1.0
279	ROCK1	MYH9	0.36403112006818295	1.0
280	NUMA1	BIRC6	0.323854033075275	1.0
281	EGFR	PRKDC	0.9938991541866693	1.0
282	PRKDC	SYNE2	0.9852550128488847	1.0
283	HUWE1	SPTB	0.3160135609627589	1.0
284	TLR4	EGFR	0.46278685942689085	1.0
285	DLC1	TNS1	0.24665008069331443	1.0
286	NCOA2	CTNNB1	0.5967463742498128	1.0
287	AHNAK	PRX	0.6148681957728795	1.0
288	MYH9	HIVEP1	0.16215699051756127	1.0
289	PLEC	MYO18B	0.1042220794031681	1.0
290	PRKDC	SYNJ2	0.9570276082095268	1.0
291	PLEC	ASH1L	0.9952769522955712	1.0
292	PRKDC	NRXN1	0.5208422753197294	1.0
293	B2M	HMCN1	0.22081551679776384	1.0
294	C2CD3	BBS9	0.3139672993389043	1.0
295	CTNNA2	CTNNB1	0.16194663228875808	1.0
296	GOLGB1	GOLGA4	0.6015733933181978	1.0
297	LRP1	NOTCH3	0.8137679841440622	1.0
298	NUMA1	EIF5B	0.7612398381836986	1.0
299	TRPC6	ITPR3	0.4204263557969425	1.0
300	DYNC1H1	NF1	0.44821768501523274	1.0
301	CEP290	BBS9	0.5494168406409619	1.0
302	MYH10	TDRD6	0.30695205130847114	1.0
303	KCNB2	SCRIB	0.6841628360521916	1.0
304	NUMA1	TLN1	0.3492144131891586	1.0
305	GRIN2A	LRP1	0.4177410350061152	1.0
306	PRG4	MAP1B	0.2095795986363516	1.0
307	KCNA5	SCRIB	0.6529622716891734	1.0
308	CDK5RAP2	LRRK1	0.8785251568821063	1.0
309	CTNNB1	PTEN	0.017856473777091174	1.0
310	MYH10	ZDBF2	0.9296355807892759	1.0
311	BCLAF1	RP1	0.47509630515880374	1.0
312	PLCG1	AFF2	0.4754377695883593	1.0
313	PLEC	MAP1A	0.9971781068567959	1.0
314	PLEC	MXRA5	0.9458386923877258	1.0
315	SMC2	JMJD1C	0.849271170942001	1.0
316	AKAP12	CTNNB1	0.10013702130820008	1.0
317	SMC2	HLA-B	0.9155107532499945	1.0
318	GBF1	MROH2B	0.4226623442800629	1.0
319	SLC12A7	MGA	0.48391114853602235	1.0
320	FLNA	PLCG1	0.7032755590999026	1.0
321	RHOA	HLA-B	0.03264435535327296	1.0
322	PLXNB1	ERBB2	0.5476545649549333	1.0
323	CTNND2	LRRC7	0.2016221107503331	1.0
324	EIF4G1	ITPR2	0.637027422755071	1.0
325	FN1	EGFR	0.830153535420534	1.0
326	PLEC	RBM6	0.8632852148786723	1.0
327	PLCG1	FLNC	0.9625578380083095	1.0
328	PLCG1	FLNB	0.7999274071848816	1.0
329	ADNP	PLCG1	0.8387175646768027	1.0
330	AHCTF1	NUP205	0.9796687335331343	1.0
331	ADCY2	GNAS	0.02874690555965062	1.0
332	NUMA1	MACF1	0.5989805006181366	1.0
333	PLEC	AHCTF1	0.8398229469189327	1.0
334	CTNNB1	CTNNA3	0.7843992856192421	1.0
335	B2M	OTOF	0.24436441499991307	1.0
336	TIAM2	PRKDC	0.8658578705773783	1.0
337	ROBO2	ROBO1	0.41299695875029097	1.0
338	TPR	ADCY10	0.45258875541620414	1.0
339	CSMD2	PLCG1	0.7115966593286077	1.0
340	SPTAN1	PCDH19	0.5760058586448147	1.0
341	NUMA1	HELZ2	0.6452557376251745	1.0
342	NCOR1	NCOR2	0.583499364887201	1.0
343	PLEC	LAMA5	0.9909668522956017	1.0
344	ACTN2	SCRIB	0.29195553504432314	1.0
345	CDH1	CTNND1	0.022343525946208222	1.0
346	LRRK2	RHOA	0.02291923694570201	1.0
347	USP9X	NUAK1	0.978670884352312	1.0
348	AHCTF1	RANBP2	0.9366331448506983	1.0
349	NUP98	APC	0.749251866157596	1.0
350	TTN	RYR1	0.3873460322299303	1.0
351	RANBP2	APC	0.015906363865527486	1.0
352	ITIH5	NOTCH2	0.6628243588801138	1.0
353	LRP1	CACNA1A	0.8425911357007588	1.0
354	DYNC1H1	EGFR	0.9511456047893424	1.0
355	PLEKHA5	PLEKHA6	0.29195553504431315	1.0
356	TNIK	NCOR2	0.8722299114609758	1.0
357	CHD3	SETX	0.7873070704628731	1.0
358	DST	CELSR3	0.9750361084090463	1.0
359	TTN	FN1	0.9378704784210969	1.0
360	DST	TNIK	0.8867553313721457	1.0
361	CFH	EP300	0.3940168325886606	1.0
362	APC	MYH10	0.6704373099530145	1.0
363	TNS1	WNK1	0.9273200726974602	1.0
364	CHD4	XRN1	0.24591695086664422	1.0
365	NRG1	EGFR	0.37720200264181813	1.0
366	MYH3	DYSF	0.5952214416539184	1.0
367	TNIK	SPTBN1	0.31396729933891254	1.0
368	DST	KIAA1549	0.6275396709922298	1.0
369	USP9X	HTT	0.4146415739889781	1.0
370	ERBB4	DLG2	0.31328643132906786	1.0
371	CHD3	PTPRS	0.9580658846157432	1.0
372	APC	NCKAP5	0.1581668676387924	1.0
373	TNIK	PDE4DIP	0.9937053231409829	1.0
374	MYH7	MYOM2	0.3160135609627589	1.0
375	WNK1	HIVEP2	0.7454330843785062	1.0
376	MAGI2	DSCAML1	0.9111303844719704	1.0
377	APC	LAMA3	0.835652391672791	1.0
378	PRRC2B	RERE	0.8486748817844912	1.0
379	CHD4	TTN	0.9886913600906642	1.0
380	PLEKHA5	LAMB2	0.346946437881442	1.0
381	WNK1	MYH9	0.5989805006181366	1.0
382	HTT	CTNNB1	0.3131659657938322	1.0
383	COL5A1	COL6A3	0.7669685386135217	1.0
384	COL5A1	COL6A2	0.6423708533143998	1.0
385	SMAD4	TENM3	0.0003963714330489866	1.0
386	DYSF	XIRP2	0.9368020093385285	1.0
387	CACNA1A	ABCA2	0.9974253023971082	1.0
388	SPTBN2	CELSR3	0.9346105870980073	1.0
389	APC	RASA1	0.03669854961106225	1.0
390	SPTBN1	PLEKHA5	0.9155107532499945	1.0
391	CASP8	ATAD2	0.6199576297935591	1.0
392	ANK2	TNIK	0.9260833555996486	1.0
393	MYH11	APC	0.24855047419142862	1.0
394	SMAD4	FN1	0.03923817504420792	1.0
395	AR	TP53	0.0011017400811603822	1.0
396	KALRN	CACNA1A	0.8948228001478018	1.0
397	MBD5	KIAA1549	0.7648216275039998	1.0
398	APC	MBD5	0.18519554191581616	1.0
399	SPTBN4	CELSR3	0.9729575756017794	1.0
400	RIF1	LAMA4	0.874864330411448	1.0
401	NAV2	APC	0.49295213103943886	1.0
402	FN1	EP300	0.91513515611378	1.0
403	CCDC88A	HTT	0.9072626968254517	1.0
404	PTPRJ	RASA1	0.06400698278709274	1.0
405	CEP250	PLEKHA5	0.9513008711478687	1.0
406	TP53	WDR33	4.011849124713265e-05	0.5747320283078909
407	CDK5RAP2	ABCA2	0.8749037084751462	1.0
408	ERBB2	HDLBP	0.010114033701346203	1.0
409	PCSK5	CACNA1A	0.4925048243712079	1.0
410	TNIK	AKAP9	0.8880273477459225	1.0
411	AKAP13	RANBP2	0.694660672618674	1.0
412	FLNA	APC	0.6399912673975471	1.0
413	APC	NUP214	0.781391706549307	1.0
414	TNIK	MYT1L	0.0448725455162661	1.0
415	ITSN2	KIAA1549	0.8806843870134041	1.0
416	PCDHA4	TP53	0.00080436971365134	1.0
417	EVPL	PLEKHA5	0.8846255136051874	1.0
418	KAT6A	RERE	0.8140840831870342	1.0
419	TRIP12	CELSR3	0.7998539115615009	1.0
420	APC	NAV3	0.28599079306891967	1.0
421	SMAD4	HDLBP	0.0011214951018226733	1.0
422	RIF1	WDR62	0.8960259892449429	1.0
423	PAPPA2	SMAD4	0.038882772523234334	1.0
424	PDZD2	NRXN1	0.317854037449066	1.0
425	MYO16	NRXN1	0.330369905455107	1.0
426	MYOM2	NEB	0.8077172401474667	1.0
427	APC	TPR	0.4875750203372075	1.0
428	COL12A1	DYSF	0.6086418653312688	1.0
429	EGFR	ITSN2	0.6529622716891794	1.0
430	JMJD1C	MYOM2	0.567836118476986	1.0
431	LRP1	EGFR	0.7831836205698395	1.0
432	HTT	TSHZ3	0.36251461305019467	1.0
433	CLUH	CELSR3	0.9831126633526945	1.0
434	PLEKHA5	PLEC	0.6646723374359531	1.0
435	JAKMIP1	HTT	0.08825052344762775	1.0
436	SPTAN1	PLEKHA5	0.37720200264181813	1.0
437	NCOR1	HTT	0.8778910494153874	1.0
438	CHD5	EGFR	0.932131460531284	1.0
439	ITSN2	SYNJ2	0.7873070704628731	1.0
440	GREB1	CASP8	0.49250482441675547	1.0
441	APC	CREBBP	0.6630949784333311	1.0
442	GREB1	SMAD4	0.014497394627139192	1.0
443	TTN	FLNA	0.7513615551663732	1.0
444	RXFP3	GNAS	0.7556580865393423	1.0
445	TTC3	TTN	0.715617430197088	1.0
446	SIPA1L1	NRXN1	0.22796253559017784	1.0
447	CACNA1A	VWF	0.36251461305019467	1.0
448	SOS2	EGFR	0.6861347681828961	1.0
449	GAK	AR	0.045275198712069954	1.0
450	DST	APC	0.3027793719895521	1.0
451	CHD3	CASP8	0.1861430958405627	1.0
452	PRRC2A	RERE	0.6292475497936173	1.0
453	MIA3	CACNA1A	0.6947146449904794	1.0
454	SPTBN1	APC	0.3806624315365134	1.0
455	COL5A1	COL1A2	0.8079799323013687	1.0
456	CACNA1A	NOTCH1	0.08418969310500214	1.0
457	CPSF1	PRRC2A	0.3848033214008535	1.0
458	PDE4DIP	KRAS	0.12363463745182471	1.0
459	APC	SYNE1	0.3925842814025869	1.0
460	APC	SPTBN2	0.7364161932850738	1.0
461	RASA1	DCC	0.14056102128542175	1.0
462	LAMA4	APC	0.49295213103943886	1.0
463	ZFP64	MTUS2	0.06400698278709274	1.0
464	ZNF106	APC	0.7364161932850738	1.0
465	HECW1	CACNA1A	0.17801039884916853	1.0
466	APC	MACF1	0.7090320952560769	1.0
467	APC	NEB	0.1884628837630816	1.0
468	ACTN2	LRP12	0.4839111485228689	1.0
469	DYSF	COL6A3	0.6457341971750172	1.0
470	NINL	ZNF646	0.4837896688632308	1.0
471	MYCBP2	TTN	0.9117467914189132	1.0
472	RIF1	PCDHA4	0.9396764523127535	1.0
473	HSPG2	CACNA1A	0.9285992829776709	1.0
