TCGA-3C-AAAU-01A	1254
TCGA-3C-AALI-01A	1255
TCGA-3C-AALJ-01A	1256
TCGA-3C-AALK-01A	1257
TCGA-4H-AAAK-01A	1390
TCGA-5L-AAT0-01A	1617
TCGA-5L-AAT1-01A	1618
TCGA-5T-A9QA-01A	1627
TCGA-A1-A0SB-01A	2184
TCGA-A1-A0SD-01A	2185
TCGA-A1-A0SE-01A	2186
TCGA-A1-A0SF-01A	2187
TCGA-A1-A0SG-01A	2188
TCGA-A1-A0SH-01A	2189
TCGA-A1-A0SI-01A	2190
TCGA-A1-A0SJ-01A	2191
TCGA-A1-A0SK-01A	2192
TCGA-A1-A0SM-01A	2193
TCGA-A1-A0SN-01A	2194
TCGA-A1-A0SO-01A	2195
TCGA-A1-A0SP-01A	2196
TCGA-A1-A0SQ-01A	2197
TCGA-A2-A04N-01A	2198
TCGA-A2-A04P-01A	2199
TCGA-A2-A04Q-01A	2200
TCGA-A2-A04R-01A	2201
TCGA-A2-A04T-01A	2202
TCGA-A2-A04U-01A	2203
TCGA-A2-A04V-01A	2204
TCGA-A2-A04W-01A	2205
TCGA-A2-A04X-01A	2206
TCGA-A2-A04Y-01A	2207
TCGA-A2-A0CK-01A	2208
TCGA-A2-A0CL-01A	2209
TCGA-A2-A0CM-01A	2210
TCGA-A2-A0CP-01A	2212
TCGA-A2-A0CQ-01A	2213
TCGA-A2-A0CR-01A	2214
TCGA-A2-A0CS-01A	2215
TCGA-A2-A0CT-01A	2216
TCGA-A2-A0CU-01A	2217
TCGA-A2-A0CV-01A	2218
TCGA-A2-A0CW-01A	2219
TCGA-A2-A0CX-01A	2220
TCGA-A2-A0CZ-01A	2221
TCGA-A2-A0D0-01A	2222
TCGA-A2-A0D1-01A	2223
TCGA-A2-A0D2-01A	2224
TCGA-A2-A0D3-01A	2225
TCGA-A2-A0D4-01A	2226
TCGA-A2-A0EM-01A	2227
TCGA-A2-A0EN-01A	2228
TCGA-A2-A0EO-01A	2229
TCGA-A2-A0EP-01A	2230
TCGA-A2-A0EQ-01A	2231
TCGA-A2-A0ER-01A	2232
TCGA-A2-A0ES-01A	2233
TCGA-A2-A0ET-01A	2234
TCGA-A2-A0EU-01A	2235
TCGA-A2-A0EV-01A	2236
TCGA-A2-A0EW-01A	2237
TCGA-A2-A0EX-01A	2238
TCGA-A2-A0EY-01A	2239
TCGA-A2-A0ST-01A	2240
TCGA-A2-A0SU-01A	2241
TCGA-A2-A0SV-01A	2242
TCGA-A2-A0SW-01A	2243
TCGA-A2-A0SX-01A	2244
TCGA-A2-A0SY-01A	2245
TCGA-A2-A0T0-01A	2246
TCGA-A2-A0T1-01A	2247
TCGA-A2-A0T2-01A	2248
TCGA-A2-A0T3-01A	2249
TCGA-A2-A0T4-01A	2250
TCGA-A2-A0T5-01A	2251
TCGA-A2-A0T6-01A	2252
TCGA-A2-A0T7-01A	2253
TCGA-A2-A0YC-01A	2254
TCGA-A2-A0YD-01A	2255
TCGA-A2-A0YE-01A	2256
TCGA-A2-A0YF-01A	2257
TCGA-A2-A0YG-01A	2258
TCGA-A2-A0YH-01A	2259
TCGA-A2-A0YI-01A	2260
TCGA-A2-A0YJ-01A	2261
TCGA-A2-A0YK-01A	2262
TCGA-A2-A0YL-01A	2263
TCGA-A2-A0YM-01A	2264
TCGA-A2-A0YT-01A	2265
TCGA-A2-A1FV-01A	2266
TCGA-A2-A1FW-01A	2267
TCGA-A2-A1FX-01A	2268
TCGA-A2-A1FZ-01A	2269
TCGA-A2-A1G0-01A	2270
TCGA-A2-A1G1-01A	2271
TCGA-A2-A1G4-01A	2272
TCGA-A2-A1G6-01A	2273
TCGA-A2-A259-01A	2274
TCGA-A2-A25A-01A	2275
TCGA-A2-A25B-01A	2276
TCGA-A2-A25C-01A	2277
TCGA-A2-A25D-01A	2278
TCGA-A2-A25E-01A	2279
TCGA-A2-A25F-01A	2280
TCGA-A2-A3KD-01A	2282
TCGA-A2-A3XT-01A	2284
TCGA-A2-A3XU-01A	2285
TCGA-A2-A3XV-01A	2286
TCGA-A2-A3XW-01A	2287
TCGA-A2-A3XX-01A	2288
TCGA-A2-A3XZ-01A	2290
TCGA-A2-A3Y0-01A	2291
TCGA-A2-A4S1-01A	2296
TCGA-A2-A4S2-01A	2297
TCGA-A2-A4S3-01A	2298
TCGA-A7-A0CD-01A	2445
TCGA-A7-A0CE-01A	2446
TCGA-A7-A0CG-01A	2447
TCGA-A7-A0CH-01A	2448
TCGA-A7-A0CJ-01A	2449
TCGA-A7-A0D9-01A	2450
TCGA-A7-A0DA-01A	2451
TCGA-A7-A0DB-01A	2452
TCGA-A7-A13D-01A	2453
TCGA-A7-A13E-01A	2454
TCGA-A7-A13F-01A	2455
TCGA-A7-A13G-01A	2456
TCGA-A7-A26E-01A	2458
TCGA-A7-A26F-01A	2459
TCGA-A7-A26G-01A	2460
TCGA-A7-A26H-01A	2461
TCGA-A7-A26I-01A	2462
TCGA-A7-A26J-01A	2463
TCGA-A7-A2KD-01A	2464
TCGA-A7-A3RF-01A	2469
TCGA-A7-A425-01A	2470
TCGA-A7-A4SC-01A	2474
TCGA-A7-A4SD-01A	2475
TCGA-A7-A4SE-01A	2476
TCGA-A7-A56D-01A	2478
TCGA-A7-A5ZV-01A	2479
TCGA-A7-A5ZW-01A	2480
TCGA-A7-A5ZX-01A	2481
TCGA-A7-A6VV-01A	2482
TCGA-A7-A6VW-01A	2483
TCGA-A7-A6VX-01A	2484
TCGA-A7-A6VY-01A	2485
TCGA-A8-A06N-01A	2486
TCGA-A8-A06O-01A	2487
TCGA-A8-A06P-01A	2488
TCGA-A8-A06Q-01A	2489
TCGA-A8-A06R-01A	2490
TCGA-A8-A06T-01A	2491
TCGA-A8-A06U-01A	2492
TCGA-A8-A06X-01A	2493
TCGA-A8-A06Y-01A	2494
TCGA-A8-A06Z-01A	2495
TCGA-A8-A075-01A	2496
TCGA-A8-A076-01A	2497
TCGA-A8-A079-01A	2498
TCGA-A8-A07B-01A	2499
TCGA-A8-A07C-01A	2500
TCGA-A8-A07E-01A	2501
TCGA-A8-A07F-01A	2502
TCGA-A8-A07G-01A	2503
TCGA-A8-A07I-01A	2504
TCGA-A8-A07J-01A	2505
TCGA-A8-A07L-01A	2506
TCGA-A8-A07O-01A	2507
TCGA-A8-A07P-01A	2508
TCGA-A8-A07U-01A	2511
TCGA-A8-A07W-01A	2512
TCGA-A8-A07Z-01A	2513
TCGA-A8-A081-01A	2514
TCGA-A8-A082-01A	2515
TCGA-A8-A083-01A	2516
TCGA-A8-A084-01A	2517
TCGA-A8-A085-01A	2518
TCGA-A8-A086-01A	2519
TCGA-A8-A08A-01A	2520
TCGA-A8-A08B-01A	2521
TCGA-A8-A08F-01A	2523
TCGA-A8-A08G-01A	2524
TCGA-A8-A08H-01A	2525
TCGA-A8-A08I-01A	2526
TCGA-A8-A08J-01A	2527
TCGA-A8-A08L-01A	2528
TCGA-A8-A08O-01A	2529
TCGA-A8-A08P-01A	2530
TCGA-A8-A08R-01A	2531
TCGA-A8-A08S-01A	2532
TCGA-A8-A08T-01A	2533
TCGA-A8-A08X-01A	2534
TCGA-A8-A08Z-01A	2535
TCGA-A8-A090-01A	2536
TCGA-A8-A091-01A	2537
TCGA-A8-A092-01A	2538
TCGA-A8-A093-01A	2539
TCGA-A8-A094-01A	2540
TCGA-A8-A095-01A	2541
TCGA-A8-A096-01A	2542
TCGA-A8-A097-01A	2543
TCGA-A8-A099-01A	2544
TCGA-A8-A09A-01A	2545
TCGA-A8-A09B-01A	2546
TCGA-A8-A09C-01A	2547
TCGA-A8-A09D-01A	2548
TCGA-A8-A09E-01A	2549
TCGA-A8-A09G-01A	2550
TCGA-A8-A09I-01A	2551
TCGA-A8-A09K-01A	2552
TCGA-A8-A09M-01A	2553
TCGA-A8-A09N-01A	2554
TCGA-A8-A09Q-01A	2555
TCGA-A8-A09R-01A	2556
TCGA-A8-A09T-01A	2557
TCGA-A8-A09V-01A	2558
TCGA-A8-A09W-01A	2559
TCGA-A8-A09X-01A	2560
TCGA-A8-A09Z-01A	2561
TCGA-A8-A0A1-01A	2562
TCGA-A8-A0A2-01A	2563
TCGA-A8-A0A4-01A	2564
TCGA-A8-A0A6-01A	2565
TCGA-A8-A0A7-01A	2566
TCGA-A8-A0A9-01A	2567
TCGA-A8-A0AB-01A	2568
TCGA-A8-A0AD-01A	2569
TCGA-AC-A23C-01A	2933
TCGA-AC-A23E-01A	2934
TCGA-AC-A23H-01A	2936
TCGA-AC-A2B8-01A	2937
TCGA-AC-A2BK-01A	2938
TCGA-AC-A2BM-01A	2939
TCGA-AC-A2FB-01A	2940
TCGA-AC-A2FF-01A	2942
TCGA-AC-A2FG-01A	2943
TCGA-AC-A2FK-01A	2944
TCGA-AC-A2FO-01A	2946
TCGA-AC-A2QH-01A	2947
TCGA-AC-A3HN-01A	2952
TCGA-AC-A3OD-01A	2953
TCGA-AC-A3QP-01A	2954
TCGA-AC-A3QQ-01A	2955
TCGA-AC-A3W5-01A	2958
TCGA-AC-A3YI-01A	2961
TCGA-AC-A3YJ-01A	2962
TCGA-AC-A4ZE-01A	2963
TCGA-AC-A5EH-01A	2964
TCGA-AC-A5EI-01A	2965
TCGA-AC-A5XS-01A	2966
TCGA-AC-A5XU-01A	2967
TCGA-AC-A62V-01A	2968
TCGA-AC-A62X-01A	2969
TCGA-AC-A62Y-01A	2970
TCGA-AC-A6IV-01A	2971
TCGA-AC-A6IW-01A	2972
TCGA-AC-A6IX-01A	2973
TCGA-AC-A6IX-06A	2974
TCGA-AC-A6NO-01A	2975
TCGA-AC-A7VB-01A	2976
TCGA-AC-A7VC-01A	2977
TCGA-AC-A8OP-01A	2978
TCGA-AC-A8OQ-01A	2979
TCGA-AC-A8OR-01A	2980
TCGA-AC-A8OS-01A	2981
TCGA-AN-A03X-01A	3163
TCGA-AN-A03Y-01A	3164
TCGA-AN-A041-01A	3165
TCGA-AN-A046-01A	3166
TCGA-AN-A049-01A	3167
TCGA-AN-A04A-01A	3168
TCGA-AN-A04C-01A	3169
TCGA-AN-A04D-01A	3170
TCGA-AN-A0AJ-01A	3171
TCGA-AN-A0AK-01A	3172
TCGA-AN-A0AL-01A	3173
TCGA-AN-A0AM-01A	3174
TCGA-AN-A0AR-01A	3175
TCGA-AN-A0AS-01A	3176
TCGA-AN-A0AT-01A	3177
TCGA-AN-A0FD-01A	3178
TCGA-AN-A0FF-01A	3179
TCGA-AN-A0FJ-01A	3180
TCGA-AN-A0FK-01A	3181
TCGA-AN-A0FL-01A	3182
TCGA-AN-A0FN-01A	3183
TCGA-AN-A0FS-01A	3184
TCGA-AN-A0FT-01A	3185
TCGA-AN-A0FV-01A	3186
TCGA-AN-A0FW-01A	3187
TCGA-AN-A0FX-01A	3188
TCGA-AN-A0FY-01A	3189
TCGA-AN-A0FZ-01A	3190
TCGA-AN-A0G0-01A	3191
TCGA-AN-A0XL-01A	3192
TCGA-AN-A0XN-01A	3193
TCGA-AN-A0XO-01A	3194
TCGA-AN-A0XP-01A	3195
TCGA-AN-A0XR-01A	3196
TCGA-AN-A0XS-01A	3197
TCGA-AN-A0XT-01A	3198
TCGA-AN-A0XU-01A	3199
TCGA-AN-A0XV-01A	3200
TCGA-AN-A0XW-01A	3201
TCGA-AO-A03L-01A	3202
TCGA-AO-A03M-01B	3203
TCGA-AO-A03N-01B	3204
TCGA-AO-A03O-01A	3205
TCGA-AO-A03P-01A	3206
TCGA-AO-A03R-01A	3207
TCGA-AO-A03T-01A	3208
TCGA-AO-A03U-01B	3209
TCGA-AO-A03V-01A	3210
TCGA-AO-A0J2-01A	3211
TCGA-AO-A0J3-01A	3212
TCGA-AO-A0J4-01A	3213
TCGA-AO-A0J5-01A	3214
TCGA-AO-A0J6-01A	3215
TCGA-AO-A0J7-01A	3216
TCGA-AO-A0J8-01A	3217
TCGA-AO-A0J9-01A	3218
TCGA-AO-A0JA-01A	3219
TCGA-AO-A0JB-01A	3220
TCGA-AO-A0JC-01A	3221
TCGA-AO-A0JD-01A	3222
TCGA-AO-A0JE-01A	3223
TCGA-AO-A0JF-01A	3224
TCGA-AO-A0JG-01A	3225
TCGA-AO-A0JI-01A	3226
TCGA-AO-A0JJ-01A	3227
TCGA-AO-A0JM-01A	3229
TCGA-AO-A124-01A	3230
TCGA-AO-A125-01A	3231
TCGA-AO-A126-01A	3232
TCGA-AO-A128-01A	3233
TCGA-AO-A129-01A	3234
TCGA-AO-A12A-01A	3235
TCGA-AO-A12B-01A	3236
TCGA-AO-A12D-01A	3237
TCGA-AO-A12E-01A	3238
TCGA-AO-A12F-01A	3239
TCGA-AO-A12G-01A	3240
TCGA-AO-A12H-01A	3241
TCGA-AO-A1KO-01A	3242
TCGA-AO-A1KP-01A	3243
TCGA-AO-A1KR-01A	3245
TCGA-AO-A1KS-01A	3246
TCGA-AO-A1KT-01A	3247
TCGA-AQ-A04H-01B	3293
TCGA-AQ-A04J-01A	3294
TCGA-AQ-A0Y5-01A	3296
TCGA-AQ-A1H2-01A	3297
TCGA-AQ-A1H3-01A	3298
TCGA-AQ-A54O-01A	3300
TCGA-AQ-A7U7-01A	3301
TCGA-AR-A0TP-01A	3302
TCGA-AR-A0TQ-01A	3303
TCGA-AR-A0TR-01A	3304
TCGA-AR-A0TS-01A	3305
TCGA-AR-A0TT-01A	3306
TCGA-AR-A0TU-01A	3307
TCGA-AR-A0TV-01A	3308
TCGA-AR-A0TW-01A	3309
TCGA-AR-A0TX-01A	3310
TCGA-AR-A0TY-01A	3311
TCGA-AR-A0TZ-01A	3312
TCGA-AR-A0U0-01A	3313
TCGA-AR-A0U1-01A	3314
TCGA-AR-A0U2-01A	3315
TCGA-AR-A0U3-01A	3316
TCGA-AR-A0U4-01A	3317
TCGA-AR-A1AH-01A	3318
TCGA-AR-A1AI-01A	3319
TCGA-AR-A1AJ-01A	3320
TCGA-AR-A1AK-01A	3321
TCGA-AR-A1AL-01A	3322
TCGA-AR-A1AN-01A	3324
TCGA-AR-A1AO-01A	3325
TCGA-AR-A1AP-01A	3326
TCGA-AR-A1AQ-01A	3327
TCGA-AR-A1AR-01A	3328
TCGA-AR-A1AS-01A	3329
TCGA-AR-A1AT-01A	3330
TCGA-AR-A1AU-01A	3331
TCGA-AR-A1AV-01A	3332
TCGA-AR-A1AW-01A	3333
TCGA-AR-A1AX-01A	3334
TCGA-AR-A1AY-01A	3335
TCGA-AR-A24H-01A	3336
TCGA-AR-A24K-01A	3337
TCGA-AR-A24L-01A	3338
TCGA-AR-A24M-01A	3339
TCGA-AR-A24N-01A	3340
TCGA-AR-A24O-01A	3341
TCGA-AR-A24P-01A	3342
TCGA-AR-A24Q-01A	3343
TCGA-AR-A24R-01A	3344
TCGA-AR-A24S-01A	3345
TCGA-AR-A24T-01A	3346
TCGA-AR-A24U-01A	3347
TCGA-AR-A24V-01A	3348
TCGA-AR-A24W-01A	3349
TCGA-AR-A24X-01A	3350
TCGA-AR-A24Z-01A	3351
TCGA-AR-A250-01A	3352
TCGA-AR-A251-01A	3353
TCGA-AR-A252-01A	3354
TCGA-AR-A254-01A	3355
TCGA-AR-A255-01A	3356
TCGA-AR-A256-01A	3357
TCGA-AR-A2LE-01A	3358
TCGA-AR-A2LH-01A	3359
TCGA-AR-A2LK-01A	3361
TCGA-AR-A2LL-01A	3362
TCGA-AR-A2LM-01A	3363
TCGA-AR-A2LN-01A	3364
TCGA-AR-A2LO-01A	3365
TCGA-AR-A2LQ-01A	3366
TCGA-AR-A2LR-01A	3367
TCGA-AR-A5QM-01A	3368
TCGA-AR-A5QN-01A	3369
TCGA-AR-A5QP-01A	3370
TCGA-AR-A5QQ-01A	3371
TCGA-B6-A0I1-01A	3658
TCGA-B6-A0I2-01A	3659
TCGA-B6-A0I5-01A	3660
TCGA-B6-A0I8-01A	3661
TCGA-B6-A0I9-01A	3662
TCGA-B6-A0IA-01A	3663
TCGA-B6-A0IB-01A	3664
TCGA-B6-A0IC-01A	3665
TCGA-B6-A0IE-01A	3666
TCGA-B6-A0IG-01A	3667
TCGA-B6-A0IH-01A	3668
TCGA-B6-A0IJ-01A	3669
TCGA-B6-A0IK-01A	3670
TCGA-B6-A0IM-01A	3671
TCGA-B6-A0IN-01A	3672
TCGA-B6-A0IO-01A	3673
TCGA-B6-A0IP-01A	3674
TCGA-B6-A0IQ-01A	3675
TCGA-B6-A0RE-01A	3676
TCGA-B6-A0RG-01A	3677
TCGA-B6-A0RH-01A	3678
TCGA-B6-A0RI-01A	3679
TCGA-B6-A0RL-01A	3680
TCGA-B6-A0RM-01A	3681
TCGA-B6-A0RN-01A	3682
TCGA-B6-A0RO-01A	3683
TCGA-B6-A0RP-01A	3684
TCGA-B6-A0RQ-01A	3685
TCGA-B6-A0RS-01A	3686
TCGA-B6-A0RT-01A	3687
TCGA-B6-A0RU-01A	3688
TCGA-B6-A0RV-01A	3689
TCGA-B6-A0WS-01A	3690
TCGA-B6-A0WT-01A	3691
TCGA-B6-A0WV-01A	3692
TCGA-B6-A0WW-01A	3693
TCGA-B6-A0WX-01A	3694
TCGA-B6-A0WY-01A	3695
TCGA-B6-A0WZ-01A	3696
TCGA-B6-A0X0-01A	3697
TCGA-B6-A0X1-01A	3698
TCGA-B6-A0X4-01A	3699
TCGA-B6-A0X5-01A	3700
TCGA-B6-A0X7-01A	3701
TCGA-B6-A1KC-01B	3702
TCGA-B6-A1KF-01A	3703
TCGA-B6-A1KI-01A	3704
TCGA-B6-A1KN-01A	3705
TCGA-B6-A2IU-01A	3706
TCGA-B6-A401-01A	3709
TCGA-B6-A409-01A	3712
TCGA-B6-A40B-01A	3713
TCGA-B6-A40C-01A	3714
TCGA-BH-A0AU-01A	3876
TCGA-BH-A0AV-01A	3877
TCGA-BH-A0AW-01A	3878
TCGA-BH-A0AY-01A	3879
TCGA-BH-A0AZ-01A	3880
TCGA-BH-A0B0-01A	3881
TCGA-BH-A0B1-01A	3882
TCGA-BH-A0B3-01A	3884
TCGA-BH-A0B4-01A	3885
TCGA-BH-A0B5-01A	3886
TCGA-BH-A0B6-01A	3887
TCGA-BH-A0B7-01A	3888
TCGA-BH-A0B8-01A	3889
TCGA-BH-A0B9-01A	3890
TCGA-BH-A0BA-01A	3891
TCGA-BH-A0BC-01A	3892
TCGA-BH-A0BD-01A	3893
TCGA-BH-A0BF-01A	3894
TCGA-BH-A0BG-01A	3895
TCGA-BH-A0BJ-01A	3896
TCGA-BH-A0BL-01A	3897
TCGA-BH-A0BM-01A	3898
TCGA-BH-A0BO-01A	3899
TCGA-BH-A0BP-01A	3900
TCGA-BH-A0BQ-01A	3901
TCGA-BH-A0BR-01A	3902
TCGA-BH-A0BS-01A	3903
TCGA-BH-A0BT-01A	3904
TCGA-BH-A0BV-01A	3905
TCGA-BH-A0BW-01A	3906
TCGA-BH-A0BZ-01A	3907
TCGA-BH-A0C0-01A	3908
TCGA-BH-A0C1-01B	3909
TCGA-BH-A0C3-01A	3910
TCGA-BH-A0C7-01B	3911
TCGA-BH-A0DD-01A	3912
TCGA-BH-A0DE-01A	3913
TCGA-BH-A0DG-01A	3914
TCGA-BH-A0DH-01A	3915
TCGA-BH-A0DI-01A	3916
TCGA-BH-A0DK-01A	3917
TCGA-BH-A0DL-01A	3918
TCGA-BH-A0DO-01B	3919
TCGA-BH-A0DP-01A	3920
TCGA-BH-A0DQ-01A	3921
TCGA-BH-A0DS-01A	3922
TCGA-BH-A0DT-01A	3923
TCGA-BH-A0DV-01A	3924
TCGA-BH-A0DX-01A	3925
TCGA-BH-A0DZ-01A	3926
TCGA-BH-A0E0-01A	3927
TCGA-BH-A0E1-01A	3928
TCGA-BH-A0E2-01A	3929
TCGA-BH-A0E6-01A	3930
TCGA-BH-A0E7-01A	3931
TCGA-BH-A0E9-01B	3932
TCGA-BH-A0EA-01A	3933
TCGA-BH-A0EB-01A	3934
TCGA-BH-A0EE-01A	3935
TCGA-BH-A0EI-01A	3936
TCGA-BH-A0GY-01A	3937
TCGA-BH-A0GZ-01A	3938
TCGA-BH-A0H0-01A	3939
TCGA-BH-A0H3-01A	3940
TCGA-BH-A0H5-01A	3941
TCGA-BH-A0H6-01A	3942
TCGA-BH-A0H7-01A	3943
TCGA-BH-A0H9-01A	3944
TCGA-BH-A0HA-01A	3945
TCGA-BH-A0HB-01A	3946
TCGA-BH-A0HF-01A	3947
TCGA-BH-A0HI-01A	3948
TCGA-BH-A0HK-01A	3949
TCGA-BH-A0HL-01A	3950
TCGA-BH-A0HN-01A	3951
TCGA-BH-A0HO-01A	3952
TCGA-BH-A0HP-01A	3953
TCGA-BH-A0HQ-01A	3954
TCGA-BH-A0HU-01A	3955
TCGA-BH-A0HW-01A	3956
TCGA-BH-A0HX-01A	3957
TCGA-BH-A0HY-01A	3958
TCGA-BH-A0RX-01A	3959
TCGA-BH-A0W3-01A	3960
TCGA-BH-A0W4-01A	3961
TCGA-BH-A0W5-01A	3962
TCGA-BH-A0W7-01A	3963
TCGA-BH-A0WA-01A	3964
TCGA-BH-A18F-01A	3965
TCGA-BH-A18G-01A	3966
TCGA-BH-A18H-01A	3967
TCGA-BH-A18I-01A	3968
TCGA-BH-A18J-01A	3969
TCGA-BH-A18K-01A	3970
TCGA-BH-A18L-01A	3971
TCGA-BH-A18M-01A	3972
TCGA-BH-A18N-01A	3973
TCGA-BH-A18P-01A	3974
TCGA-BH-A18Q-01A	3975
TCGA-BH-A18R-01A	3976
TCGA-BH-A18S-01A	3977
TCGA-BH-A18T-01A	3978
TCGA-BH-A18U-01A	3979
TCGA-BH-A18V-01A	3980
TCGA-BH-A18V-06A	3981
TCGA-BH-A1EN-01A	3982
TCGA-BH-A1EO-01A	3983
TCGA-BH-A1ET-01A	3985
TCGA-BH-A1EU-01A	3986
TCGA-BH-A1EV-01A	3987
TCGA-BH-A1EW-01A	3988
TCGA-BH-A1EX-01A	3989
TCGA-BH-A1EY-01A	3990
TCGA-BH-A1F0-01A	3991
TCGA-BH-A1F2-01A	3992
TCGA-BH-A1F5-01A	3993
TCGA-BH-A1F6-01A	3994
TCGA-BH-A1F8-01A	3995
TCGA-BH-A1FC-01A	3997
TCGA-BH-A1FD-01A	3998
TCGA-BH-A1FE-01A	3999
TCGA-BH-A1FE-06A	4000
TCGA-BH-A1FG-01A	4001
TCGA-BH-A1FH-01A	4002
TCGA-BH-A1FJ-01A	4003
TCGA-BH-A1FL-01A	4004
TCGA-BH-A1FM-01A	4005
TCGA-BH-A1FN-01A	4006
TCGA-BH-A1FR-01A	4007
TCGA-BH-A1FU-01A	4008
TCGA-BH-A201-01A	4009
TCGA-BH-A202-01A	4010
TCGA-BH-A203-01A	4011
TCGA-BH-A204-01A	4012
TCGA-BH-A208-01A	4013
TCGA-BH-A209-01A	4014
TCGA-BH-A28Q-01A	4016
TCGA-BH-A2L8-01A	4017
TCGA-BH-A42U-01A	4019
TCGA-BH-A42V-01A	4020
TCGA-BH-A5IZ-01A	4021
TCGA-BH-A5J0-01A	4022
TCGA-BH-A6R8-01A	4023
TCGA-BH-A6R9-01A	4024
TCGA-BH-A8FY-01A	4025
TCGA-BH-A8FZ-01A	4026
TCGA-BH-A8G0-01A	4027
TCGA-BH-AB28-01A	4028
TCGA-C8-A12K-01A	4380
TCGA-C8-A12L-01A	4381
TCGA-C8-A12M-01A	4382
TCGA-C8-A12N-01A	4383
TCGA-C8-A12O-01A	4384
TCGA-C8-A12P-01A	4385
TCGA-C8-A12Q-01A	4386
TCGA-C8-A12T-01A	4387
TCGA-C8-A12U-01A	4388
TCGA-C8-A12V-01A	4389
TCGA-C8-A12W-01A	4390
TCGA-C8-A12X-01A	4391
TCGA-C8-A12Y-01A	4392
TCGA-C8-A12Z-01A	4393
TCGA-C8-A130-01A	4394
TCGA-C8-A131-01A	4395
TCGA-C8-A132-01A	4396
TCGA-C8-A133-01A	4397
TCGA-C8-A134-01A	4398
TCGA-C8-A135-01A	4399
TCGA-C8-A137-01A	4400
TCGA-C8-A138-01A	4401
TCGA-C8-A1HE-01A	4402
TCGA-C8-A1HF-01A	4403
TCGA-C8-A1HG-01A	4404
TCGA-C8-A1HI-01A	4405
TCGA-C8-A1HJ-01A	4406
TCGA-C8-A1HK-01A	4407
TCGA-C8-A1HL-01A	4408
TCGA-C8-A1HM-01A	4409
TCGA-C8-A1HN-01A	4410
TCGA-C8-A1HO-01A	4411
TCGA-C8-A26V-01A	4412
TCGA-C8-A26W-01A	4413
TCGA-C8-A26X-01A	4414
TCGA-C8-A26Y-01A	4415
TCGA-C8-A26Z-01A	4416
TCGA-C8-A273-01A	4417
TCGA-C8-A274-01A	4418
TCGA-C8-A275-01A	4419
TCGA-C8-A278-01A	4420
TCGA-C8-A27A-01A	4421
TCGA-C8-A27B-01A	4422
TCGA-C8-A3M7-01A	4423
TCGA-C8-A3M8-01A	4424
TCGA-C8-A8HP-01A	4425
TCGA-C8-A8HQ-01A	4426
TCGA-C8-A8HR-01A	4427
TCGA-C8-A9FZ-01A	4428
TCGA-D8-A13Y-01A	5275
TCGA-D8-A13Z-01A	5276
TCGA-D8-A140-01A	5277
TCGA-D8-A141-01A	5278
TCGA-D8-A142-01A	5279
TCGA-D8-A143-01A	5280
TCGA-D8-A145-01A	5281
TCGA-D8-A146-01A	5282
TCGA-D8-A147-01A	5283
TCGA-D8-A1J8-01A	5284
TCGA-D8-A1J9-01A	5285
TCGA-D8-A1JA-01A	5286
TCGA-D8-A1JB-01A	5287
TCGA-D8-A1JC-01A	5288
TCGA-D8-A1JD-01A	5289
TCGA-D8-A1JE-01A	5290
TCGA-D8-A1JF-01A	5291
TCGA-D8-A1JG-01B	5292
TCGA-D8-A1JH-01A	5293
TCGA-D8-A1JI-01A	5294
TCGA-D8-A1JJ-01A	5295
TCGA-D8-A1JK-01A	5296
TCGA-D8-A1JL-01A	5297
TCGA-D8-A1JM-01A	5298
TCGA-D8-A1JN-01A	5299
TCGA-D8-A1JP-01A	5300
TCGA-D8-A1JS-01A	5301
TCGA-D8-A1JT-01A	5302
TCGA-D8-A1JU-01A	5303
TCGA-D8-A1X5-01A	5304
TCGA-D8-A1X6-01A	5305
TCGA-D8-A1X7-01A	5306
TCGA-D8-A1X8-01A	5307
TCGA-D8-A1X9-01A	5308
TCGA-D8-A1XA-01A	5309
TCGA-D8-A1XB-01A	5310
TCGA-D8-A1XC-01A	5311
TCGA-D8-A1XF-01A	5313
TCGA-D8-A1XG-01A	5314
TCGA-D8-A1XJ-01A	5315
TCGA-D8-A1XK-01A	5316
TCGA-D8-A1XL-01A	5317
TCGA-D8-A1XM-01A	5318
TCGA-D8-A1XO-01A	5319
TCGA-D8-A1XQ-01A	5320
TCGA-D8-A1XR-01A	5321
TCGA-D8-A1XS-01A	5322
TCGA-D8-A1XT-01A	5323
TCGA-D8-A1XU-01A	5324
TCGA-D8-A1XV-01A	5325
TCGA-D8-A1XW-01A	5326
TCGA-D8-A1XY-01A	5327
TCGA-D8-A1XZ-01A	5328
TCGA-D8-A1Y0-01A	5329
TCGA-D8-A1Y1-01A	5330
TCGA-D8-A1Y2-01A	5331
TCGA-D8-A1Y3-01A	5332
TCGA-D8-A27E-01A	5333
TCGA-D8-A27F-01A	5334
TCGA-D8-A27G-01A	5335
TCGA-D8-A27H-01A	5336
TCGA-D8-A27I-01A	5337
TCGA-D8-A27K-01A	5338
TCGA-D8-A27L-01A	5339
TCGA-D8-A27M-01A	5340
TCGA-D8-A27N-01A	5341
TCGA-D8-A27P-01A	5342
TCGA-D8-A27R-01A	5343
TCGA-D8-A27T-01A	5344
TCGA-D8-A27V-01A	5345
TCGA-D8-A27W-01A	5346
TCGA-D8-A3Z6-01A	5348
TCGA-D8-A4Z1-01A	5349
TCGA-D8-A73U-01A	5350
TCGA-D8-A73W-01A	5351
TCGA-D8-A73X-01A	5352
TCGA-E2-A105-01A	5534
TCGA-E2-A107-01A	5535
TCGA-E2-A108-01A	5536
TCGA-E2-A109-01A	5537
TCGA-E2-A10A-01A	5538
TCGA-E2-A10B-01A	5539
TCGA-E2-A10C-01A	5540
TCGA-E2-A10F-01A	5542
TCGA-E2-A14N-01A	5543
TCGA-E2-A14O-01A	5544
TCGA-E2-A14P-01A	5545
TCGA-E2-A14Q-01A	5546
TCGA-E2-A14R-01A	5547
TCGA-E2-A14T-01A	5549
TCGA-E2-A14V-01A	5551
TCGA-E2-A14W-01A	5552
TCGA-E2-A14X-01A	5553
TCGA-E2-A14Y-01A	5554
TCGA-E2-A14Z-01A	5555
TCGA-E2-A150-01A	5556
TCGA-E2-A152-01A	5557
TCGA-E2-A153-01A	5558
TCGA-E2-A154-01A	5559
TCGA-E2-A155-01A	5560
TCGA-E2-A156-01A	5561
TCGA-E2-A158-01A	5562
TCGA-E2-A159-01A	5563
TCGA-E2-A15A-01A	5564
TCGA-E2-A15A-06A	5565
TCGA-E2-A15C-01A	5566
TCGA-E2-A15D-01A	5567
TCGA-E2-A15E-01A	5568
TCGA-E2-A15E-06A	5569
TCGA-E2-A15F-01A	5570
TCGA-E2-A15G-01A	5571
TCGA-E2-A15H-01A	5572
TCGA-E2-A15I-01A	5573
TCGA-E2-A15J-01A	5574
TCGA-E2-A15K-01A	5575
TCGA-E2-A15K-06A	5576
TCGA-E2-A15L-01A	5577
TCGA-E2-A15M-01A	5578
TCGA-E2-A15O-01A	5579
TCGA-E2-A15P-01A	5580
TCGA-E2-A15R-01A	5581
TCGA-E2-A15S-01A	5582
TCGA-E2-A15T-01A	5583
TCGA-E2-A1AZ-01A	5584
TCGA-E2-A1B0-01A	5585
TCGA-E2-A1B1-01A	5586
TCGA-E2-A1B4-01A	5587
TCGA-E2-A1B5-01A	5588
TCGA-E2-A1B6-01A	5589
TCGA-E2-A1BC-01A	5590
TCGA-E2-A1BD-01A	5591
TCGA-E2-A1IE-01A	5592
TCGA-E2-A1IF-01A	5593
TCGA-E2-A1IG-01A	5594
TCGA-E2-A1IH-01A	5595
TCGA-E2-A1II-01A	5596
TCGA-E2-A1IJ-01A	5597
TCGA-E2-A1IK-01A	5598
TCGA-E2-A1IL-01A	5599
TCGA-E2-A1IN-01A	5600
TCGA-E2-A1IO-01A	5601
TCGA-E2-A1IU-01A	5602
TCGA-E2-A1L6-01A	5603
TCGA-E2-A1L7-01A	5604
TCGA-E2-A1L8-01A	5605
TCGA-E2-A1L9-01A	5606
TCGA-E2-A1LA-01A	5607
TCGA-E2-A1LB-01A	5608
TCGA-E2-A1LG-01A	5610
TCGA-E2-A1LH-01A	5611
TCGA-E2-A1LI-01A	5612
TCGA-E2-A1LK-01A	5613
TCGA-E2-A1LL-01A	5614
TCGA-E2-A1LS-01A	5615
TCGA-E2-A2P6-01A	5617
TCGA-E2-A56Z-01A	5619
TCGA-E2-A570-01A	5620
TCGA-E2-A572-01A	5621
TCGA-E2-A573-01A	5622
TCGA-E2-A574-01A	5623
TCGA-E2-A576-01A	5624
TCGA-E2-A9RU-01A	5625
TCGA-E9-A1N3-01A	5657
TCGA-E9-A1N4-01A	5658
TCGA-E9-A1N5-01A	5659
TCGA-E9-A1N8-01A	5661
TCGA-E9-A1N9-01A	5662
TCGA-E9-A1NA-01A	5663
TCGA-E9-A1NC-01A	5664
TCGA-E9-A1ND-01A	5665
TCGA-E9-A1NE-01A	5666
TCGA-E9-A1NF-01A	5667
TCGA-E9-A1NG-01A	5668
TCGA-E9-A1NH-01A	5669
TCGA-E9-A1NI-01A	5670
TCGA-E9-A1QZ-01A	5671
TCGA-E9-A1R0-01A	5672
TCGA-E9-A1R2-01A	5673
TCGA-E9-A1R3-01A	5674
TCGA-E9-A1R4-01A	5675
TCGA-E9-A1R5-01A	5676
TCGA-E9-A1R6-01A	5677
TCGA-E9-A1R7-01A	5678
TCGA-E9-A1RA-01A	5679
TCGA-E9-A1RB-01A	5680
TCGA-E9-A1RC-01A	5681
TCGA-E9-A1RD-01A	5682
TCGA-E9-A1RE-01A	5683
TCGA-E9-A1RF-01A	5684
TCGA-E9-A1RG-01A	5685
TCGA-E9-A1RH-01A	5686
TCGA-E9-A1RI-01A	5687
TCGA-E9-A226-01A	5688
TCGA-E9-A227-01A	5689
TCGA-E9-A228-01A	5690
TCGA-E9-A229-01A	5691
TCGA-E9-A22A-01A	5692
TCGA-E9-A22B-01A	5693
TCGA-E9-A22D-01A	5694
TCGA-E9-A22E-01A	5695
TCGA-E9-A22G-01A	5696
TCGA-E9-A22H-01A	5697
TCGA-E9-A243-01A	5698
TCGA-E9-A244-01A	5699
TCGA-E9-A245-01A	5700
TCGA-E9-A247-01A	5701
TCGA-E9-A248-01A	5702
TCGA-E9-A249-01A	5703
TCGA-E9-A24A-01A	5704
TCGA-E9-A295-01A	5705
TCGA-E9-A2JS-01A	5706
TCGA-E9-A2JT-01A	5707
TCGA-E9-A3HO-01A	5708
TCGA-E9-A3QA-01A	5710
TCGA-E9-A3X8-01A	5711
TCGA-E9-A54Y-01A	5713
TCGA-E9-A5FK-01A	5714
TCGA-E9-A5FL-01A	5715
TCGA-E9-A5UO-01A	5716
TCGA-E9-A6HE-01A	5718
TCGA-EW-A1IW-01A	5962
TCGA-EW-A1IX-01A	5963
TCGA-EW-A1IY-01A	5964
TCGA-EW-A1IZ-01A	5965
TCGA-EW-A1J1-01A	5966
TCGA-EW-A1J2-01A	5967
TCGA-EW-A1J3-01A	5968
TCGA-EW-A1J5-01A	5969
TCGA-EW-A1J6-01A	5970
TCGA-EW-A1OV-01A	5971
TCGA-EW-A1OX-01A	5973
TCGA-EW-A1OY-01A	5974
TCGA-EW-A1OZ-01A	5975
TCGA-EW-A1P0-01A	5976
TCGA-EW-A1P1-01A	5977
TCGA-EW-A1P3-01A	5978
TCGA-EW-A1P4-01A	5979
TCGA-EW-A1P5-01A	5980
TCGA-EW-A1P6-01A	5981
TCGA-EW-A1P7-01A	5982
TCGA-EW-A1P8-01A	5983
TCGA-EW-A1PA-01A	5984
TCGA-EW-A1PB-01A	5985
TCGA-EW-A1PD-01A	5987
TCGA-EW-A1PE-01A	5988
TCGA-EW-A1PG-01A	5990
TCGA-EW-A1PH-01A	5991
TCGA-EW-A2FR-01A	5992
TCGA-EW-A2FS-01A	5993
TCGA-EW-A2FV-01A	5994
TCGA-EW-A2FW-01A	5995
TCGA-EW-A423-01A	5998
TCGA-EW-A6S9-01A	6000
TCGA-EW-A6SA-01A	6001
TCGA-EW-A6SB-01A	6002
TCGA-EW-A6SC-01A	6003
TCGA-EW-A6SD-01A	6004
TCGA-GI-A2C8-01A	6308
TCGA-GM-A2D9-01A	6311
TCGA-GM-A2DA-01A	6312
TCGA-GM-A2DB-01A	6313
TCGA-GM-A2DC-01A	6314
TCGA-GM-A2DD-01A	6315
TCGA-GM-A2DF-01A	6316
TCGA-GM-A2DH-01A	6317
TCGA-GM-A2DI-01A	6318
TCGA-GM-A2DK-01A	6319
TCGA-GM-A2DL-01A	6320
TCGA-GM-A2DM-01A	6321
TCGA-GM-A2DN-01A	6322
TCGA-GM-A2DO-01A	6323
TCGA-GM-A3NW-01A	6324
TCGA-GM-A3XL-01A	6327
TCGA-GM-A4E0-01A	6329
TCGA-GM-A5PV-01A	6330
TCGA-GM-A5PX-01A	6331
TCGA-HN-A2NL-01A	6408
TCGA-HN-A2OB-01A	6409
TCGA-JL-A3YX-01A	6491
TCGA-LD-A66U-01A	6542
TCGA-LD-A74U-01A	6543
TCGA-LD-A7W5-01A	6544
TCGA-LD-A7W6-01A	6545
TCGA-LD-A9QF-01A	6546
TCGA-LL-A440-01A	6548
TCGA-LL-A50Y-01A	6551
TCGA-LL-A5YL-01A	6552
TCGA-LL-A5YM-01A	6553
TCGA-LL-A5YN-01A	6554
TCGA-LL-A5YO-01A	6555
TCGA-LL-A5YP-01A	6556
TCGA-LL-A6FP-01A	6557
TCGA-LL-A6FQ-01A	6558
TCGA-LL-A6FR-01A	6559
TCGA-LL-A73Y-01A	6560
TCGA-LL-A73Z-01A	6561
TCGA-LL-A740-01A	6562
TCGA-LL-A7SZ-01A	6563
TCGA-LL-A7T0-01A	6564
TCGA-LL-A8F5-01A	6565
TCGA-LL-A9Q3-01A	6566
TCGA-OK-A5Q2-01A	6661
TCGA-OL-A5D6-01A	6662
TCGA-OL-A5D7-01A	6663
TCGA-OL-A5D8-01A	6664
TCGA-OL-A5DA-01A	6665
TCGA-OL-A5RU-01A	6666
TCGA-OL-A5RV-01A	6667
TCGA-OL-A5RW-01A	6668
TCGA-OL-A5RX-01A	6669
TCGA-OL-A5RY-01A	6670
TCGA-OL-A5RZ-01A	6671
TCGA-OL-A5S0-01A	6672
TCGA-OL-A66H-01A	6673
TCGA-OL-A66I-01A	6674
TCGA-OL-A66J-01A	6675
TCGA-OL-A66K-01A	6676
TCGA-OL-A66L-01A	6677
TCGA-OL-A66N-01A	6678
TCGA-OL-A66O-01A	6679
TCGA-OL-A66P-01A	6680
TCGA-OL-A6VO-01A	6681
TCGA-OL-A6VQ-01A	6682
TCGA-OL-A6VR-01A	6683
TCGA-OL-A97C-01A	6684
TCGA-PE-A5DC-01A	6701
TCGA-PE-A5DD-01A	6702
TCGA-PE-A5DE-01A	6703
TCGA-PL-A8LV-01A	6711
TCGA-PL-A8LX-01A	6712
TCGA-PL-A8LY-01A	6713
TCGA-PL-A8LZ-01A	6714
TCGA-S3-A6ZF-01A	6775
TCGA-S3-A6ZG-01A	6776
TCGA-S3-A6ZH-01A	6777
TCGA-S3-AA0Z-01A	6778
TCGA-S3-AA10-01A	6779
TCGA-S3-AA11-01A	6780
TCGA-S3-AA12-01A	6781
TCGA-S3-AA14-01A	6782
TCGA-S3-AA15-01A	6783
TCGA-S3-AA17-01A	6784
TCGA-UL-AAZ6-01A	6823
TCGA-UU-A93S-01A	6825
TCGA-V7-A7HQ-01A	6841
TCGA-W8-A86G-01A	6918
TCGA-WT-AB41-01A	6939
TCGA-WT-AB44-01A	6940
TCGA-XX-A899-01A	6999
TCGA-XX-A89A-01A	7000
TCGA-Z7-A8R5-01A	7015
TCGA-Z7-A8R6-01A	7016
